{
  "$schema":"https://json-schema.org/draft/2020-12/schema",
  "$id":"https://id.uvci.eu/DGC.combined-schema.json",
  "title":"EU DGC",
  "description":"EU Digital Green Certificate",
  "$comment":"Schema version 1.x",
  "required":[
    "ver",
    "nam",
    "dob"
  ],
  "type":"object",
  "properties":{
    "ver":{
      "title":"Schema version",
      "description":"Version of the schema, according to Semantic versioning (ISO, https://semver.org/ version 2.0.0 or newer)",
      "type":[
        "null",
        "string"
      ],
      "examples":[
        "1.0.0"
      ]
    },
    "nam":{
      "description":"Surname(s), given name(s) - in that order",
      "$ref":"#/$defs/person_name"
    },
    "dob":{
      "title":"Date of birth",
      "description":"Date of Birth of the person addressed in the DGC. ISO 8601 date format restricted to range 1900-2099",
      "type":[
        "null",
        "string"
      ],
      "examples":[
        "1979-04-14",
        "1979-04",
        "1979",
        "",
        "1979-04-14T00:00:00"
      ]
    },
    "v":{
      "description":"Vaccination Group",
      "type":[
        "null",
        "array"
      ],
      "items":{
        "$ref":"#/$defs/vaccination_entry"
      }
    },
    "t":{
      "description":"Test Group",
      "type":[
        "null",
        "array"
      ],
      "items":{
        "$ref":"#/$defs/test_entry"
      }
    },
    "r":{
      "description":"Recovery Group",
      "type":[
        "null",
        "array"
      ],
      "items":{
        "$ref":"#/$defs/recovery_entry"
      }
    }
  },
  "$defs":{
    "dose_posint":{
      "description":"Dose Number / Total doses in Series: positive integer, range: [1,9]",
      "type":[
        "null",
        "integer"
      ]
    },
    "country_vt":{
      "description":"Country of Vaccination / Test, ISO 3166 where possible",
      "type":[
        "null",
        "string"
      ]
    },
    "issuer":{
      "description":"Certificate Issuer",
      "type":[
        "null",
        "string"
      ]
    },
    "person_name":{
      "description":"Person name: Surname(s), given name(s) - in that order",
      "required":[
        "fnt"
      ],
      "type":"object",
      "properties":{
        "fn":{
          "title":"Family name",
          "description":"The family or primary name(s) of the person addressed in the certificate",
          "type":[
            "null",
            "string"
          ],
          "examples":[
            "d'Červenková Panklová"
          ]
        },
        "fnt":{
          "title":"Standardised family name",
          "description":"The family name(s) of the person transliterated",
          "type":[
            "null",
            "string"
          ],
          "examples":[
            "DCERVENKOVA<PANKLOVA"
          ]
        },
        "gn":{
          "title":"Given name",
          "description":"The given name(s) of the person addressed in the certificate",
          "type":[
            "null",
            "string"
          ],
          "examples":[
            "Jiřina-Maria Alena"
          ]
        },
        "gnt":{
          "title":"Standardised given name",
          "description":"The given name(s) of the person transliterated",
          "type":[
            "null",
            "string"
          ],
          "examples":[
            "JIRINA<MARIA<ALENA"
          ]
        }
      }
    },
    "certificate_id":{
      "description":"Certificate Identifier, format as per UVCI: Annex 2 in  https://ec.europa.eu/health/sites/health/files/ehealth/docs/vaccination-proof_interoperability-guidelines_en.pdf",
      "type":[
        "null",
        "string"
      ]
    },
    "vaccination_entry":{
      "description":"Vaccination Entry",
      "required":[
        "tg",
        "vp",
        "mp",
        "ma",
        "dn",
        "sd",
        "dt",
        "co",
        "is",
        "ci"
      ],
      "type":[
        "null",
        "object"
      ],
      "properties":{
        "tg":{
          "description":"disease or agent targeted",
          "$ref":"#/$defs/disease-agent-targeted"
        },
        "vp":{
          "description":"vaccine or prophylaxis",
          "$ref":"#/$defs/vaccine-prophylaxis"
        },
        "mp":{
          "description":"vaccine medicinal product",
          "$ref":"#/$defs/vaccine-medicinal-product"
        },
        "ma":{
          "description":"Marketing Authorization Holder - if no MAH present, then manufacturer",
          "$ref":"#/$defs/vaccine-mah-manf"
        },
        "dn":{
          "description":"Dose Number",
          "$ref":"#/$defs/dose_posint"
        },
        "sd":{
          "description":"Total Series of Doses",
          "$ref":"#/$defs/dose_posint"
        },
        "dt":{
          "description":"Date of Vaccination",
          "type":[
            "null",
            "string"
          ],
          "$comment":"SemanticSG: constrain to specific date range?"
        },
        "co":{
          "description":"Country of Vaccination",
          "$ref":"#/$defs/country_vt"
        },
        "is":{
          "description":"Certificate Issuer",
          "$ref":"#/$defs/issuer"
        },
        "ci":{
          "description":"Unique Certificate Identifier: UVCI",
          "$ref":"#/$defs/certificate_id"
        }
      }
    },
    "test_entry":{
      "description":"Test Entry",
      "required":[
        "tg",
        "tt",
        "sc",
        "tr",
        "co",
        "is",
        "ci"
      ],
      "type":[
        "null",
        "object"
      ],
      "properties":{
        "tg":{
          "$ref":"#/$defs/disease-agent-targeted"
        },
        "tt":{
          "description":"Type of Test",
          "type":[
            "null",
            "string"
          ]
        },
        "nm":{
          "description":"NAA Test Name",
          "type":[
            "null",
            "string"
          ]
        },
        "ma":{
          "description":"RAT Test name and manufacturer",
          "$ref":"#/$defs/test-manf"
        },
        "sc":{
          "description":"Date/Time of Sample Collection",
          "type":[
            "null",
            "string"
          ]
        },
        "dr":{
          "description":"Date/Time of Test Result",
          "type":[
            "null",
            "string"
          ]
        },
        "tr":{
          "description":"Test Result",
          "$ref":"#/$defs/test-result"
        },
        "tc":{
          "description":"Testing Centre",
          "type":[
            "null",
            "string"
          ]
        },
        "co":{
          "description":"Country of Test",
          "$ref":"#/$defs/country_vt"
        },
        "is":{
          "description":"Certificate Issuer",
          "$ref":"#/$defs/issuer"
        },
        "ci":{
          "description":"Unique Certificate Identifier, UVCI",
          "$ref":"#/$defs/certificate_id"
        }
      }
    },
    "recovery_entry":{
      "description":"Recovery Entry",
      "required":[
        "tg",
        "fr",
        "co",
        "is",
        "df",
        "du",
        "ci"
      ],
      "type":[
        "null",
        "object"
      ],
      "properties":{
        "tg":{
          "$ref":"#/$defs/disease-agent-targeted"
        },
        "fr":{
          "description":"ISO 8601 Date of First Positive Test Result",
          "type":[
            "null",
            "string"
          ]
        },
        "co":{
          "description":"Country of Test",
          "$ref":"#/$defs/country_vt"
        },
        "is":{
          "description":"Certificate Issuer",
          "$ref":"#/$defs/issuer"
        },
        "df":{
          "description":"ISO 8601 Date: Certificate Valid From",
          "type":[
            "null",
            "string"
          ]
        },
        "du":{
          "description":"Certificate Valid Until",
          "type":[
            "null",
            "string"
          ]
        },
        "ci":{
          "description":"Unique Certificate Identifier, UVCI",
          "$ref":"#/$defs/certificate_id"
        }
      }
    },
    "disease-agent-targeted":{
      "description":"EU eHealthNetwork: Value Sets for Digital Green Certificates. version 1.0, 2021-04-16, section 2.1",
      "type":[
        "null",
        "string"
      ],
      "valueset-uri":"valuesets/disease-agent-targeted.json"
    },
    "vaccine-prophylaxis":{
      "description":"EU eHealthNetwork: Value Sets for Digital Green Certificates. version 1.0, 2021-04-16, section 2.2",
      "type":[
        "null",
        "string"
      ],
      "valueset-uri":"valuesets/vaccine-prophylaxis.json"
    },
    "vaccine-medicinal-product":{
      "description":"EU eHealthNetwork: Value Sets for Digital Green Certificates. version 1.0, 2021-04-16, section 2.3",
      "type":[
        "null",
        "string"
      ],
      "valueset-uri":"valuesets/vaccine-medicinal-product.json"
    },
    "vaccine-mah-manf":{
      "description":"EU eHealthNetwork: Value Sets for Digital Green Certificates. version 1.0, 2021-04-16, section 2.4",
      "type":[
        "null",
        "string"
      ],
      "valueset-uri":"valuesets/vaccine-mah-manf.json"
    },
    "test-manf":{
      "description":"EU eHealthNetwork: Value Sets for Digital Green Certificates. version 1.0, 2021-04-16, section 2.8",
      "type":[
        "null",
        "string"
      ],
      "valueset-uri":"valuesets/test-manf.json"
    },
    "test-result":{
      "description":"EU eHealthNetwork: Value Sets for Digital Green Certificates. version 1.0, 2021-04-16, section 2.9",
      "type":[
        "null",
        "string"
      ],
      "valueset-uri":"valuesets/test-results.json"
    }
  }
}