[
  {
    "name": "France continentale",
    "nameCode": "fr",
    "isArrival": true,
    "isDeparture": true,
    "isNational": true
  },
  {
    "name": "France (Martinique)",
    "nameCode": "mq",
    "isArrival": true,
    "isDeparture": true,
    "isNational": true
  },
  {
    "name": "France (Guadeloupe)",
    "nameCode": "gp",
    "isArrival": true,
    "isDeparture": true,
    "isNational": true
  },
  {
    "name": "France (Guyane)",
    "nameCode": "gf",
    "isArrival": true,
    "isDeparture": true,
    "isNational": true
  },
  {
    "name": "France (La Réunion)",
    "nameCode": "re",
    "isArrival": true,
    "isDeparture": true,
    "isNational": true
  },
  {
    "name": "France (Mayotte)",
    "nameCode": "yt",
    "isArrival": true,
    "isDeparture": true,
    "isNational": true
  },
  {
    "name": "France (Wallis-et-Futuna)",
    "nameCode": "wf",
    "isArrival": true,
    "isDeparture": true,
    "isNational": true
  },
  {
    "name": "France (Polynésie française)",
    "nameCode": "pf",
    "isArrival": true,
    "isDeparture": true,
    "isNational": true
  },
  {
    "name": "France (Saint-Martin)",
    "nameCode": "mf",
    "isArrival": true,
    "isDeparture": true,
    "isNational": true
  },
  {
    "name": "France (Saint-Barthélemy)",
    "nameCode": "bl",
    "isArrival": true,
    "isDeparture": true,
    "isNational": true
  },
  {
    "name": "France (Saint-Pierre-et-Miquelon)",
    "nameCode": "pm",
    "isArrival": true,
    "isDeparture": true,
    "isNational": true
  },
  {
    "name": "France (Nouvelle-Calédonie)",
    "nameCode": "nc",
    "isArrival": true,
    "isDeparture": true,
    "isNational": true
  },
  {
    "name": "France (Corse)",
    "nameCode": "_c",
    "isArrival": true,
    "isDeparture": true,
    "isNational": true,
    "shortName": "Corse"
  },
  {
    "name": "International",
    "nameCode": "Inter",
    "isArrival": true,
    "isNational": false
  },
  {
    "name": "Autre destination",
    "nameCode": "Autre",
    "isDeparture": true,
    "isNational": false
  }
]